encoding/hangzhou.tez.out

./tezos-codec encode 011-PtHangz2.tez from '"7322135"'
97f4be03

./tezos-codec decode 011-PtHangz2.tez from 97f4be03
"7322135"

./tezos-codec encode 011-PtHangz2.tez from '"0"'
00

./tezos-codec decode 011-PtHangz2.tez from 00
"0"
