encoding/hangzhou.gas.out

./tezos-codec encode 011-PtHangz2.gas from '"1238"'
009613

./tezos-codec decode 011-PtHangz2.gas from 009613
"1238"

./tezos-codec encode 011-PtHangz2.gas from '"unaccounted"'
01

./tezos-codec decode 011-PtHangz2.gas from 01
"unaccounted"

./tezos-codec encode 011-PtHangz2.gas from '"0"'
0000

./tezos-codec decode 011-PtHangz2.gas from 0000
"0"
