encoding/hangzhou.period.out

./tezos-codec encode 011-PtHangz2.period from '"2789"'
0000000000000ae5

./tezos-codec decode 011-PtHangz2.period from 0000000000000ae5
"2789"

./tezos-codec encode 011-PtHangz2.period from '"0"'
0000000000000000

./tezos-codec decode 011-PtHangz2.period from 0000000000000000
"0"
